<?xml version="1.0" encoding="UTF-8" standalone="no"?>
<!DOCTYPE svg PUBLIC "-//W3C//DTD SVG 1.1//EN"
 "http://www.w3.org/Graphics/SVG/1.1/DTD/svg11.dtd">
<!-- Generated by graphviz version 2.38.0 (20140413.2041)
 -->
<!-- Title: controllers_diagram Pages: 1 -->
<svg width="517pt" height="407pt"
 viewBox="0.00 0.00 517.49 407.00" xmlns="http://www.w3.org/2000/svg" xmlns:xlink="http://www.w3.org/1999/xlink">
<g id="graph0" class="graph" transform="scale(1 1) rotate(0) translate(168.894 249)">
<title>controllers_diagram</title>
<polygon fill="none" stroke="none" points="-168.894,158 -168.894,-249 348.594,-249 348.594,158 -168.894,158"/>
<!-- _diagram_info -->
<g id="node1" class="node"><title>_diagram_info</title>
<text text-anchor="start" x="52" y="-107.6" font-family="Times,serif" font-size="13.00">Controllers diagram</text>
<text text-anchor="start" x="52" y="-93.6" font-family="Times,serif" font-size="13.00">Date: Apr 25 2017 &#45; 20:35</text>
<text text-anchor="start" x="52" y="-79.6" font-family="Times,serif" font-size="13.00">Migration version: 20170425143914</text>
<text text-anchor="start" x="52" y="-65.6" font-family="Times,serif" font-size="13.00">Generated by RailRoady 1.5.2</text>
<text text-anchor="start" x="52" y="-51.6" font-family="Times,serif" font-size="13.00">http://railroady.prestonlee.com</text>
</g>
<!-- ApplicationController -->
<g id="node2" class="node"><title>ApplicationController</title>
<ellipse fill="none" stroke="black" cx="231" cy="-161" rx="88.2844" ry="18"/>
<text text-anchor="middle" x="231" y="-157.3" font-family="Times,serif" font-size="14.00">ApplicationController</text>
</g>
<!-- ClientAddressesController -->
<g id="node3" class="node"><title>ClientAddressesController</title>
<ellipse fill="none" stroke="black" cx="105" cy="70" rx="104.782" ry="18"/>
<text text-anchor="middle" x="105" y="73.7" font-family="Times,serif" font-size="14.00">ClientAddressesController</text>
</g>
<!-- UsersController -->
<g id="node4" class="node"><title>UsersController</title>
<ellipse fill="none" stroke="black" cx="67" cy="136" rx="66.8882" ry="18"/>
<text text-anchor="middle" x="67" y="139.7" font-family="Times,serif" font-size="14.00">UsersController</text>
</g>
<!-- CountriesController -->
<g id="node5" class="node"><title>CountriesController</title>
<ellipse fill="none" stroke="black" cx="37" cy="-161" rx="81.4863" ry="18"/>
<text text-anchor="middle" x="37" y="-157.3" font-family="Times,serif" font-size="14.00">CountriesController</text>
</g>
<!-- BranchOfficesController -->
<g id="node6" class="node"><title>BranchOfficesController</title>
<ellipse fill="none" stroke="black" cx="241" cy="4" rx="98.2828" ry="18"/>
<text text-anchor="middle" x="241" y="7.7" font-family="Times,serif" font-size="14.00">BranchOfficesController</text>
</g>
<!-- ClientsController -->
<g id="node7" class="node"><title>ClientsController</title>
<ellipse fill="none" stroke="black" cx="-50" cy="-95" rx="71.4873" ry="18"/>
<text text-anchor="middle" x="-50" y="-91.3" font-family="Times,serif" font-size="14.00">ClientsController</text>
</g>
<!-- StatesController -->
<g id="node8" class="node"><title>StatesController</title>
<ellipse fill="none" stroke="black" cx="222" cy="136" rx="67.6881" ry="18"/>
<text text-anchor="middle" x="222" y="139.7" font-family="Times,serif" font-size="14.00">StatesController</text>
</g>
<!-- BranchOfficeAddressesController -->
<g id="node9" class="node"><title>BranchOfficeAddressesController</title>
<ellipse fill="none" stroke="black" cx="-12" cy="4" rx="130.777" ry="18"/>
<text text-anchor="middle" x="-12" y="7.7" font-family="Times,serif" font-size="14.00">BranchOfficeAddressesController</text>
</g>
<!-- HomeController -->
<g id="node10" class="node"><title>HomeController</title>
<ellipse fill="none" stroke="black" cx="-96" cy="70" rx="68.7879" ry="18"/>
<text text-anchor="middle" x="-96" y="73.7" font-family="Times,serif" font-size="14.00">HomeController</text>
</g>
<!-- CitiesController -->
<g id="node11" class="node"><title>CitiesController</title>
<ellipse fill="none" stroke="black" cx="-97" cy="136" rx="67.6881" ry="18"/>
<text text-anchor="middle" x="-97" y="139.7" font-family="Times,serif" font-size="14.00">CitiesController</text>
</g>
<!-- TasksController -->
<g id="node12" class="node"><title>TasksController</title>
<ellipse fill="none" stroke="black" cx="277" cy="-227" rx="67.6881" ry="18"/>
<text text-anchor="middle" x="277" y="-223.3" font-family="Times,serif" font-size="14.00">TasksController</text>
</g>
</g>
</svg>
